<?xml version="1.0" standalone="no"?>
<!DOCTYPE svg PUBLIC "-//W3C//DTD SVG 1.1//EN" "http://www.w3.org/Graphics/SVG/1.1/DTD/svg11.dtd" >
<svg xmlns="http://www.w3.org/2000/svg">
<metadata>Generated by IcoMoon</metadata>
<defs>
<font id="Mobile" horiz-adv-x="1024">
<font-face units-per-em="1024" ascent="960" descent="-64" />
<missing-glyph horiz-adv-x="1024" />
<glyph unicode="&#x20;" horiz-adv-x="512" d="" />
<glyph unicode="&#xe600;" glyph-name="Responsive" d="M733.013-64h-442.88c-24.747 0-45.227 20.48-45.227 45.227v933.547c0 24.747 20.48 45.227 45.227 45.227h442.88c24.747 0 45.227-20.48 45.227-45.227v-933.547c0-24.747-19.627-45.227-45.227-45.227zM290.987 939.52c-13.653 0-23.893-11.093-23.893-23.893v-933.547c0-13.653 11.093-23.893 23.893-23.893h442.88c13.653 0 23.893 11.093 23.893 23.893v932.693c0 13.653-11.093 23.893-23.893 23.893h-442.88v0.853zM512-7.68c-28.16 0-51.2 23.040-51.2 51.2s23.040 51.2 51.2 51.2 51.2-23.040 51.2-51.2c0-28.16-23.040-51.2-51.2-51.2zM512 72.533c-16.213 0-29.013-12.8-29.013-29.013s12.8-29.013 29.013-29.013 29.013 12.8 29.013 29.013-12.8 29.013-29.013 29.013zM738.133 116.907h-452.267v752.64h452.267v-752.64zM308.053 139.093h407.893v708.267h-407.893v-708.267zM574.293 896.853h-133.973c-4.267 0-8.533 3.413-8.533 8.533s3.413 8.533 8.533 8.533h133.973c4.267 0 8.533-3.413 8.533-8.533s-3.413-8.533-8.533-8.533zM192.853 160.427h-43.52c-8.533 0-15.36 6.827-15.36 15.36s6.827 15.36 15.36 15.36h43.52c8.533 0 15.36-6.827 15.36-15.36s-6.827-15.36-15.36-15.36zM70.827 168.96c-2.56 0-5.12 0.853-7.68 1.707-24.747 13.653-39.253 40.107-39.253 67.413v13.653c0 8.533 6.827 15.36 15.36 15.36s15.36-6.827 15.36-15.36v-13.653c0-17.067 9.387-32.427 23.893-40.96 7.68-4.267 10.24-13.653 5.973-21.333-3.413-4.267-8.533-6.827-13.653-6.827zM39.253 316.587c-8.533 0-15.36 6.827-15.36 15.36v80.213c0 8.533 6.827 15.36 15.36 15.36s15.36-6.827 15.36-15.36v-80.213c0-8.533-6.827-15.36-15.36-15.36zM39.253 476.16c-8.533 0-15.36 6.827-15.36 15.36v80.213c0 8.533 6.827 15.36 15.36 15.36s15.36-6.827 15.36-15.36v-80.213c0-8.533-6.827-15.36-15.36-15.36zM39.253 635.733c-8.533 0-15.36 6.827-15.36 15.36v5.973c0 31.573 18.773 59.733 47.787 71.68 7.68 3.413 17.067-0.853 20.48-8.533s-0.853-17.067-8.533-20.48c-17.92-7.68-29.013-24.747-29.013-43.52v-5.973c0-7.68-6.827-14.507-15.36-14.507zM200.533 704.853h-43.52c-8.533 0-15.36 6.827-15.36 15.36s6.827 15.36 15.36 15.36h43.52c8.533 0 15.36-6.827 15.36-15.36s-6.827-15.36-15.36-15.36zM878.933 704.853h-43.52c-8.533 0-15.36 6.827-15.36 15.36s6.827 15.36 15.36 15.36h43.52c8.533 0 15.36-6.827 15.36-15.36s-6.827-15.36-15.36-15.36zM960.853 174.080c-4.267 0-9.387 1.707-11.947 5.973-5.12 6.827-4.267 16.213 2.56 21.333 11.093 9.387 17.92 22.187 17.92 36.693v20.48c0 8.533 6.827 15.36 15.36 15.36s15.36-6.827 15.36-15.36v-20.48c0-23.893-11.093-46.080-29.867-61.44-2.56-1.707-5.973-2.56-9.387-2.56zM984.747 320.853c-8.533 0-15.36 6.827-15.36 15.36v76.8c0 8.533 6.827 15.36 15.36 15.36s15.36-6.827 15.36-15.36v-76.8c0-8.533-6.827-15.36-15.36-15.36zM984.747 475.307c-8.533 0-15.36 6.827-15.36 15.36v76.8c0 8.533 6.827 15.36 15.36 15.36s15.36-6.827 15.36-15.36v-76.8c0-8.533-6.827-15.36-15.36-15.36zM984.747 629.76c-8.533 0-15.36 6.827-15.36 15.36v12.8c0 16.213-8.533 31.573-23.040 40.107-7.68 4.267-9.387 13.653-5.12 21.333s13.653 9.387 21.333 5.12c23.893-14.507 37.547-39.253 37.547-66.56v-12.8c0-8.533-6.827-15.36-15.36-15.36zM886.613 160.427h-43.52c-8.533 0-15.36 6.827-15.36 15.36s6.827 15.36 15.36 15.36h43.52c8.533 0 15.36-6.827 15.36-15.36s-6.827-15.36-15.36-15.36z" />
<glyph unicode="&#xe601;" glyph-name="Landscape" d="M0 226.133v442.88c0 24.747 20.48 45.227 45.227 45.227h933.547c24.747 0 45.227-20.48 45.227-45.227v-442.88c0-24.747-20.48-45.227-45.227-45.227h-933.547c-25.6 0-45.227 20.48-45.227 45.227zM1002.667 669.013c0 13.653-11.093 23.893-23.893 23.893h-933.547c-13.653 0-23.893-11.093-23.893-23.893v-442.88c0-13.653 11.093-23.893 23.893-23.893h933.547c13.653 0 23.893 11.093 23.893 23.893v442.88zM56.32 447.147c0 28.16 23.040 51.2 51.2 51.2s51.2-23.040 51.2-51.2c0-28.16-23.040-51.2-51.2-51.2s-51.2 23.040-51.2 51.2zM136.533 447.147c0 16.213-12.8 29.013-29.013 29.013s-29.013-12.8-29.013-29.013 12.8-29.013 29.013-29.013 29.013 13.653 29.013 29.013zM180.907 221.013v452.267h752.64v-452.267h-752.64zM203.093 651.947v-407.893h708.267v408.747l-708.267-0.853zM960.853 384.853v133.973c0 4.267 3.413 8.533 8.533 8.533s8.533-3.413 8.533-8.533v-133.973c0-4.267-3.413-8.533-8.533-8.533s-8.533 4.267-8.533 8.533z" />
<glyph unicode="&#xe602;" glyph-name="Portrait" d="M733.44-64h-442.88c-24.747 0-45.227 20.48-45.227 45.227v933.547c0 24.747 20.48 45.227 45.227 45.227h442.88c24.747 0 45.227-20.48 45.227-45.227v-933.547c0-24.747-20.48-45.227-45.227-45.227zM290.56 939.52c-13.653 0-23.893-11.093-23.893-23.893v-933.547c0-13.653 11.093-23.893 23.893-23.893h442.88c13.653 0 23.893 11.093 23.893 23.893v932.693c0 13.653-11.093 23.893-23.893 23.893h-442.88v0.853zM512.427-6.827c-28.16 0-51.2 23.040-51.2 51.2s23.040 51.2 51.2 51.2 51.2-23.040 51.2-51.2-23.040-51.2-51.2-51.2zM512.427 73.387c-16.213 0-29.013-12.8-29.013-29.013s12.8-29.013 29.013-29.013 29.013 12.8 29.013 29.013-13.653 29.013-29.013 29.013zM738.56 117.76h-452.267v752.64h452.267v-752.64zM308.48 139.947h407.893v708.267h-407.893v-708.267zM574.72 896.853h-133.973c-4.267 0-8.533 3.413-8.533 8.533s3.413 8.533 8.533 8.533h133.973c4.267 0 8.533-3.413 8.533-8.533s-4.267-8.533-8.533-8.533z" />
<glyph unicode="&#xe603;" glyph-name="Full" d="M733.44-64h-442.88c-24.747 0-45.227 20.48-45.227 45.227v933.547c0 24.747 20.48 45.227 45.227 45.227h442.88c24.747 0 45.227-20.48 45.227-45.227v-933.547c0-24.747-20.48-45.227-45.227-45.227zM290.56 939.52c-13.653 0-23.893-11.093-23.893-23.893v-933.547c0-13.653 11.093-23.893 23.893-23.893h442.88c13.653 0 23.893 11.093 23.893 23.893v932.693c0 13.653-11.093 23.893-23.893 23.893h-442.88v0.853zM512.427-6.827c-28.16 0-51.2 23.040-51.2 51.2s23.040 51.2 51.2 51.2 51.2-23.040 51.2-51.2-23.040-51.2-51.2-51.2zM512.427 73.387c-16.213 0-29.013-12.8-29.013-29.013s12.8-29.013 29.013-29.013 29.013 12.8 29.013 29.013-13.653 29.013-29.013 29.013zM738.56 117.76h-452.267v752.64h452.267v-752.64zM574.72 896.853h-133.973c-4.267 0-8.533 3.413-8.533 8.533s3.413 8.533 8.533 8.533h133.973c4.267 0 8.533-3.413 8.533-8.533s-4.267-8.533-8.533-8.533z" />
<glyph unicode="&#xe604;" glyph-name="Banner" d="M733.44-64h-442.88c-24.747 0-45.227 20.48-45.227 45.227v933.547c0 24.747 20.48 45.227 45.227 45.227h442.88c24.747 0 45.227-20.48 45.227-45.227v-933.547c0-24.747-20.48-45.227-45.227-45.227zM290.56 939.52c-13.653 0-23.893-11.093-23.893-23.893v-933.547c0-13.653 11.093-23.893 23.893-23.893h442.88c13.653 0 23.893 11.093 23.893 23.893v932.693c0 13.653-11.093 23.893-23.893 23.893h-442.88v0.853zM512.427-6.827c-28.16 0-51.2 23.040-51.2 51.2s23.040 51.2 51.2 51.2 51.2-23.040 51.2-51.2-23.040-51.2-51.2-51.2zM512.427 73.387c-16.213 0-29.013-12.8-29.013-29.013s12.8-29.013 29.013-29.013 29.013 12.8 29.013 29.013-13.653 29.013-29.013 29.013zM286.293 870.4v-752.64h452.267v752.64h-452.267zM308.48 848.213h407.893v-320h-407.893v320zM308.48 419.84h407.893v-279.893h-407.893v279.893zM574.72 896.853h-133.973c-4.267 0-8.533 3.413-8.533 8.533s3.413 8.533 8.533 8.533h133.973c4.267 0 8.533-3.413 8.533-8.533s-4.267-8.533-8.533-8.533z" />
<glyph unicode="&#xe605;" glyph-name="Html" d="M733.44-64h-442.88c-24.747 0-45.227 20.48-45.227 45.227v933.547c0 24.747 20.48 45.227 45.227 45.227h442.88c24.747 0 45.227-20.48 45.227-45.227v-933.547c0-24.747-20.48-45.227-45.227-45.227zM290.56 939.52c-13.653 0-23.893-11.093-23.893-23.893v-933.547c0-13.653 11.093-23.893 23.893-23.893h442.88c13.653 0 23.893 11.093 23.893 23.893v932.693c0 13.653-11.093 23.893-23.893 23.893h-442.88v0.853zM512.427-6.827c-28.16 0-51.2 23.040-51.2 51.2s23.040 51.2 51.2 51.2c28.16 0 51.2-23.040 51.2-51.2s-23.040-51.2-51.2-51.2zM512.427 73.387c-16.213 0-29.013-12.8-29.013-29.013s12.8-29.013 29.013-29.013c16.213 0 29.013 12.8 29.013 29.013s-13.653 29.013-29.013 29.013zM286.293 870.4v-752.64h452.267v752.64zM716.373 139.947h-407.893v708.267h407.893zM574.72 896.853h-133.973c-4.267 0-8.533 3.413-8.533 8.533s3.413 8.533 8.533 8.533h133.973c4.267 0 8.533-3.413 8.533-8.533s-4.267-8.533-8.533-8.533zM486.755 527.452h-23.987v88.316h-90.012v-88.316h-23.987v180.388h23.987v-70.75h90.012v70.75h23.987v-180.388zM663.993 686.518h-64.45v-159.066h-23.987v159.066h-64.45v21.322h152.888v-21.322zM509.41 280.178h-23.987v155.432l-50.155-105.761h-14.295l-49.791 105.761v-155.432h-22.412v180.388h32.71l48.095-100.431 46.521 100.431h33.316v-180.388zM672.231 280.178h-114.121v180.388h23.987v-159.066h90.134v-21.322z" />
</font></defs></svg>