<svg width="32" height="32" viewBox="0 0 32 32" fill="none" xmlns="http://www.w3.org/2000/svg">
  <path d="M17 19V27.3573C17 29.3691 15.3691 31 13.3573 31H4.644C2.632 31 1.00074 29.3693 1 27.3573V6.644C1.00074 4.63178 2.63178 3.00074 4.644 3H8" stroke="#1D87C8" stroke-width="1.75" stroke-linecap="round" stroke-linejoin="round"/>
  <path d="M1 25H17" stroke="#1D87C8" stroke-width="1.75" stroke-linecap="round" stroke-linejoin="round"/>
  <path fill-rule="evenodd" clip-rule="evenodd" d="M27 1H16C13.7909 1 12 2.79086 12 5V11C12 13.2091 13.7909 15 16 15H21V20L26 15H27C29.2091 15 31 13.2091 31 11V5C31 2.79086 29.2091 1 27 1Z" stroke="#1D87C8" stroke-width="1.75" stroke-linecap="round" stroke-linejoin="round"/>
  <path d="M16.5 7.5C16.2239 7.5 16 7.72386 16 8C16 8.27614 16.2239 8.5 16.5 8.5C16.7761 8.5 17 8.27614 17 8C17 7.72386 16.7761 7.5 16.5 7.5" stroke="#1D87C8" stroke-width="1.75" stroke-linecap="round" stroke-linejoin="round"/>
  <path d="M21.5 7.5C21.2239 7.5 21 7.72386 21 8C21 8.27614 21.2239 8.5 21.5 8.5C21.7761 8.5 22 8.27614 22 8C22 7.72386 21.7761 7.5 21.5 7.5" stroke="#1D87C8" stroke-width="1.75" stroke-linecap="round" stroke-linejoin="round"/>
  <path d="M26.5 7.5C26.2239 7.5 26 7.72386 26 8C26 8.27614 26.2239 8.5 26.5 8.5C26.7761 8.5 27 8.27614 27 8C27 7.72386 26.7761 7.5 26.5 7.5" stroke="#1D87C8" stroke-width="1.75" stroke-linecap="round" stroke-linejoin="round"/>
</svg>
