<svg width="22" height="22" viewBox="0 0 22 22" fill="none" xmlns="http://www.w3.org/2000/svg">
<path fill-rule="evenodd" clip-rule="evenodd" d="M17.2501 14.125L20.0093 11.3659C20.4973 10.8777 20.4973 10.0865 20.0093 9.59836L18.2501 7.84336C17.7027 9.14235 16.3534 9.91402 14.9562 9.72716C13.559 9.54031 12.4599 8.44118 12.273 7.04399C12.0862 5.6468 12.8578 4.29747 14.1568 3.75003L12.4018 1.99086C11.9137 1.50288 11.1224 1.50288 10.6343 1.99086L7.87515 4.75003C7.87515 3.02414 6.47604 1.62503 4.75015 1.62503C3.02426 1.62503 1.62515 3.02414 1.62515 4.75003C1.62515 6.47592 3.02426 7.87503 4.75015 7.87503L1.99098 10.6342C1.50301 11.1223 1.50301 11.9136 1.99098 12.4017L3.75015 14.1567C4.29759 12.8577 5.64692 12.086 7.04411 12.2729C8.4413 12.4597 9.54043 13.5589 9.72729 14.9561C9.91414 16.3533 9.14247 17.7026 7.84348 18.25L9.59848 20.0059C10.0866 20.4938 10.8779 20.4938 11.366 20.0059L14.1251 17.25C14.1251 18.9759 15.5243 20.375 17.2501 20.375C18.976 20.375 20.3751 18.9759 20.3751 17.25C20.3751 15.5241 18.976 14.125 17.2501 14.125Z" stroke="#A6A6A6" stroke-width="1.5" stroke-linecap="round" stroke-linejoin="round"/>
</svg>
