<svg width="24" height="25" viewBox="0 0 24 25" fill="none" xmlns="http://www.w3.org/2000/svg">
  <path fill-rule="evenodd" clip-rule="evenodd" d="M2.75981 15.829C2.01752 15.829 1.365 15.3373 1.16034 14.6238C0.955679 13.9103 1.24838 13.1475 1.87781 12.754L20.3608 1.20001C20.9211 0.849374 21.6359 0.86384 22.1815 1.23686C22.7272 1.60989 23.0001 2.27065 22.8768 2.92001L19.2768 22.093C19.1547 22.7411 18.6614 23.256 18.0191 23.4056C17.3768 23.5553 16.7068 23.3114 16.3108 22.784L11.1008 15.829H2.75981Z" stroke="black" stroke-width="1.5" stroke-linecap="round" stroke-linejoin="round"/>
  <path fill-rule="evenodd" clip-rule="evenodd" d="M11.1016 15.829H8.60156V21C8.60153 21.6165 8.94251 22.1824 9.48756 22.4704C10.0326 22.7585 10.6923 22.7214 11.2016 22.374L14.3796 20.208L11.1016 15.829Z" stroke="black" stroke-width="1.5" stroke-linecap="round" stroke-linejoin="round"/>
  <path d="M11.0996 15.829L22.1796 1.23901" stroke="black" stroke-width="1.5" stroke-linecap="round" stroke-linejoin="round"/>
</svg>
