<?xml version="1.0" encoding="utf-8"?>
<!-- Generator: Adobe Illustrator 23.0.4, SVG Export Plug-In . SVG Version: 6.00 Build 0)  -->
<svg version="1.1" id="Layer_1" xmlns="http://www.w3.org/2000/svg" xmlns:xlink="http://www.w3.org/1999/xlink" x="0px" y="0px"
	 viewBox="0 0 118.24 117.47" style="enable-background:new 0 0 118.24 117.47;" xml:space="preserve">
<style type="text/css">
	.st0{fill:#929397;}
	.st1{fill:none;stroke:#929397;stroke-width:6;stroke-miterlimit:10;}
</style>
<g>
	<g>
		<polygon class="st0" points="79.81,60.82 68.04,66.62 68.04,71.41 84.1,62.27 84.1,59.14 68.04,50.65 68.04,55.18 		"/>
		<polygon class="st0" points="34,61.24 45.77,55.44 45.77,50.65 29.72,59.79 29.72,62.92 45.77,71.41 45.77,66.87 		"/>
		<polygon class="st0" points="49.24,77.29 53.84,77.29 65.15,44 60.55,44 		"/>
	</g>
	<path class="st1" d="M95.21,45.74c0-4.5,0-9,0-13.49c0-0.7,0-1.4,0-2.1c0-0.4,0-0.79,0-1.19c0-0.02,0-0.05-0.01-0.07
		c-0.01-0.02-0.03-0.04-0.04-0.05c-0.3-0.3-0.59-0.61-0.89-0.91c-0.81-0.83-1.62-1.67-2.43-2.5c-1.11-1.15-2.23-2.29-3.34-3.44
		c-1.22-1.26-2.45-2.52-3.67-3.78c-1.14-1.17-2.28-2.35-3.42-3.52c-0.86-0.89-1.73-1.77-2.59-2.66c-0.29-0.3-0.57-0.62-0.87-0.92
		c-0.31-0.3-0.57-0.4-1-0.37c-0.95,0.06-1.91,0.06-2.87,0.06c-0.98,0-1.96,0-2.95,0c-1.2,0-2.41,0-3.61,0c-14.11,0-28.21,0-42.32,0
		c-0.6,0-1.2,0-1.81,0c-0.27,0-0.54,0-0.81,0c-0.01,0-0.02,0-0.03,0c0,0-3.79-0.1-3.85,4.41c0,25.44,0.09,50.89-0.07,76.33
		c-0.01,2.07-0.02,4.14-0.01,6.22c0.01,1.92-0.14,3.89,0.6,5.69c0.01,0.03,0.03,0.07,0.04,0.1c1.17,2.71,4.01,3.22,6.66,3.23
		c23.1,0.04,46.2-0.03,69.3,0C95.21,86.44,95.21,66.09,95.21,45.74z"/>
</g>
</svg>
