<svg id="Layer_1" xmlns="http://www.w3.org/2000/svg" viewBox="0 0 78.62 56">
  <polygon style="fill:#707070;"
           points="46.21 18.5 41.98 18.5 41.98 39.08 47.11 39.08 47.11 43.99 31.73 43.99 31.73 39.08 36.64 39.08 36.64 18.5 32.62 18.5 32.62 23.79 28.01 23.79 28.01 13.69 50.61 13.69 50.61 23.79 46.26 23.79 46.26 18.5 46.21 18.5"/>
  <polyline style="fill:#707070;" points="78.62 28.06 59.27 56 55.1 51.36 71.56 28.17 55.06 5.26 59.28 0 78.62 28.06"/>
  <polyline style="fill:#707070;" points="0 27.94 19.36 0 23.52 4.64 7.06 27.83 23.56 50.74 19.34 56 0 27.94"/>
</svg>
