<svg width="22" height="22" viewBox="0 0 22 20" fill="none" xmlns="http://www.w3.org/2000/svg">
    <path fill-rule="evenodd" clip-rule="evenodd" d="M7.25 10C9.14848 10 10.6875 8.46098 10.6875 6.5625C10.6875 4.66402 9.14848 3.125 7.25 3.125C5.35152 3.125 3.8125 4.66402 3.8125 6.5625C3.8125 8.46098 5.35152 10 7.25 10Z" stroke="#A6A6A6" stroke-width="1.5" stroke-linecap="round" stroke-linejoin="round"/>
    <path d="M1.625 16.875C1.625 13.7684 4.1434 11.25 7.25 11.25C10.3566 11.25 12.875 13.7684 12.875 16.875" stroke="#A6A6A6" stroke-width="1.5" stroke-linecap="round" stroke-linejoin="round"/>
    <path d="M12.8756 3.68017C14.3134 2.74597 16.2197 3.01412 17.344 4.30871C18.4682 5.6033 18.4665 7.52841 17.34 8.82105C16.2135 10.1137 14.3067 10.3785 12.8706 9.44184" stroke="#A6A6A6" stroke-width="1.5" stroke-linecap="round" stroke-linejoin="round"/>
    <path d="M13.5 11.3892C15.1687 11.0112 16.9188 11.4124 18.2562 12.4795C19.5936 13.5467 20.3732 15.1641 20.375 16.8751" stroke="#A6A6A6" stroke-width="1.5" stroke-linecap="round" stroke-linejoin="round"/>
</svg>
