<svg width="20" height="20" viewBox="0 0 20 20" fill="none" stroke="#606266" xmlns="http://www.w3.org/2000/svg">
<path d="M15.8333 17.5H4.16667C3.72464 17.5 3.30072 17.3244 2.98816 17.0118C2.67559 16.6993 2.5 16.2754 2.5 15.8333V4.16667C2.5 3.72464 2.67559 3.30072 2.98816 2.98816C3.30072 2.67559 3.72464 2.5 4.16667 2.5H13.3333L17.5 6.66667V15.8333C17.5 16.2754 17.3244 16.6993 17.0118 17.0118C16.6993 17.3244 16.2754 17.5 15.8333 17.5Z" stroke-width="1.5" stroke-linecap="round" stroke-linejoin="round"/>
<path d="M14.1666 17.5V10.8333H5.83325V17.5"  stroke-width="1.5" stroke-linecap="round" stroke-linejoin="round"/>
<path d="M5.83325 2.5V6.66667H12.4999"  stroke-width="1.5" stroke-linecap="round" stroke-linejoin="round"/>
</svg>
